Statistics in R
…
aov(weight ~ feed, data = chickwts) %>% glance()

# A tibble: 1 × 6
  logLik   AIC   BIC deviance  nobs r.squared
   <dbl> <dbl> <dbl>    <dbl> <int>     <dbl>
1  -382.  778.  794.  195556.    71     0.542

aov(weight ~ feed, data = chickwts) %>% augment()

Warning: The `augment()` method for objects of class `aov` is not maintained by the broom team, and is only supported through the `lm` tidier method. Please be cautious in interpreting and reporting broom output.

This warning is displayed once per session.

# A tibble: 71 × 8
   weight feed      .fitted  .resid  .hat .sigma     .cooksd .std.resid
    <dbl> <fct>       <dbl>   <dbl> <dbl>  <dbl>       <dbl>      <dbl>
 1    179 horsebean    160.  18.8   0.100   55.2 0.00242        0.361  
 2    160 horsebean    160.  -0.200 0.1     55.3 0.000000274   -0.00384
 3    136 horsebean    160. -24.2   0.100   55.2 0.00401       -0.465  
 4    227 horsebean    160.  66.8   0.100   54.6 0.0305         1.28   
 5    217 horsebean    160.  56.8   0.100   54.8 0.0221         1.09   
 6    168 horsebean    160.   7.80  0.100   55.3 0.000416       0.150  
 7    108 horsebean    160. -52.2   0.100   54.8 0.0186        -1.00   
 8    124 horsebean    160. -36.2   0.100   55.1 0.00896       -0.696  
 9    143 horsebean    160. -17.2   0.100   55.2 0.00202       -0.331  
10    140 horsebean    160. -20.2   0.100   55.2 0.00279       -0.388  
# ℹ 61 more rows
…
